Get existing entries — get_existing • SCRCdataAPI
…
    See also

    Other get functions: 
get_components(),
get_entry(),
get_file_hash(),
get_github_hash(),
get_package_info()

    Examples

# Get all entries in storage_root
get_existing("storage_root", limit_results = FALSE)

#> # A tibble: 78 x 7
#>    url     last_updated  name     root    accessibility updated_by  locations   
#>    <chr>   <chr>         <chr>    <chr>   <chr>         <chr>       <chr>       
#>  1 https:… 2020-10-30T1… source-… source… 0             https://da… https://dat…
#>  2 https:… 2020-10-30T1… https:/… https:… 0             https://da… https://dat…
#>  3 https:… 2020-10-30T1… source … https:… 0             https://da… https://dat…
#>  4 https:… 2020-10-30T1… source-… source… 0             https://da… https://dat…
#>  5 https:… 2020-10-30T1… https:/… https:… 0             https://da… https://dat…
#>  6 https:… 2020-10-30T1… source … https:… 0             https://da… https://dat…
#>  7 https:… 2020-10-30T1… source-… source… 0             https://da… https://dat…
#>  8 https:… 2020-10-30T1… https:/… https:… 0             https://da… https://dat…
#>  9 https:… 2020-10-30T1… source-… source… 0             https://da… https://dat…
#> 10 https:… 2020-10-30T1… https:/… https:… 0             https://da… https://dat…
#> # … with 68 more rows

# Get 100 newest entries in data_product
get_existing("data_product")

#> # A tibble: 100 x 7
#>    url       last_updated   name      version updated_by   object    namespace  
#>    <chr>     <chr>          <chr>     <chr>   <chr>        <chr>     <chr>      
#>  1 https://… 2020-10-30T16… register… 7.2020… https://dat… https://… https://da…
#>  2 https://… 2020-10-30T16… data_pro… 0.1.0   https://dat… https://… https://da…
#>  3 https://… 2020-10-30T16… register… 7.2020… https://dat… https://… https://da…
#>  4 https://… 2020-10-30T16… data_pro… 0.1.0   https://dat… https://… https://da…
#>  5 https://… 2020-10-30T16… register… 7.2020… https://dat… https://… https://da…
#>  6 https://… 2020-10-30T16… register… 7.2020… https://dat… https://… https://da…
#>  7 https://… 2020-10-30T16… data_pro… 0.1.0   https://dat… https://… https://da…
#>  8 https://… 2020-10-30T16… register… 1.2020… https://dat… https://… https://da…
#>  9 https://… 2020-10-30T16… data_pro… 0.1.0   https://dat… https://… https://da…
#> 10 https://… 2020-10-30T16… data_pro… 0.1.0   https://dat… https://… https://da…
#> # … with 90 more rows
…
